

================================================================
== Vivado HLS Report for 'fir'
================================================================
* Date:           Tue Jan 19 10:51:58 2021

* Version:        2020.1 (Build 2897737 on Wed May 27 20:21:37 MDT 2020)
* Project:        z7fir
* Solution:       z7fir
* Product family: zynq
* Target device:  xc7z020-clg400-1


================================================================
== Performance Estimates
================================================================
+ Timing: 
    * Summary: 
    +--------+----------+-----------+------------+
    |  Clock |  Target  | Estimated | Uncertainty|
    +--------+----------+-----------+------------+
    |ap_clk  | 20.00 ns | 15.464 ns |   2.50 ns  |
    +--------+----------+-----------+------------+

+ Latency: 
    * Summary: 
    +---------+---------+----------+----------+-----+-----+---------+
    |  Latency (cycles) |  Latency (absolute) |  Interval | Pipeline|
    |   min   |   max   |    min   |    max   | min | max |   Type  |
    +---------+---------+----------+----------+-----+-----+---------+
    |       64|       64| 1.280 us | 1.280 us |   64|   64|   none  |
    +---------+---------+----------+----------+-----+-----+---------+

    + Detail: 
        * Instance: 
        N/A

        * Loop: 
        +----------+---------+---------+----------+-----------+-----------+------+----------+
        |          |  Latency (cycles) | Iteration|  Initiation Interval  | Trip |          |
        | Loop Name|   min   |   max   |  Latency |  achieved |   target  | Count| Pipelined|
        +----------+---------+---------+----------+-----------+-----------+------+----------+
        |- Loop 1  |       60|       60|         2|          -|          -|    30|    no    |
        +----------+---------+---------+----------+-----------+-----------+------+----------+



================================================================
== Utilization Estimates
================================================================
* Summary: 
+-----------------+---------+-------+--------+-------+-----+
|       Name      | BRAM_18K| DSP48E|   FF   |  LUT  | URAM|
+-----------------+---------+-------+--------+-------+-----+
|DSP              |        -|      -|       -|      -|    -|
|Expression       |        -|     16|       0|    420|    -|
|FIFO             |        -|      -|       -|      -|    -|
|Instance         |        -|      -|       -|      -|    -|
|Memory           |        2|      -|     128|     32|    0|
|Multiplexer      |        -|      -|       -|    170|    -|
|Register         |        -|      -|     237|      -|    -|
+-----------------+---------+-------+--------+-------+-----+
|Total            |        2|     16|     365|    622|    0|
+-----------------+---------+-------+--------+-------+-----+
|Available        |      280|    220|  106400|  53200|    0|
+-----------------+---------+-------+--------+-------+-----+
|Utilization (%)  |    ~0   |      7|   ~0   |      1|    0|
+-----------------+---------+-------+--------+-------+-----+

+ Detail: 
    * Instance: 
    N/A

    * DSP48E: 
    N/A

    * Memory: 
    +--------------+----------------+---------+----+----+-----+------+-----+------+-------------+
    |    Memory    |     Module     | BRAM_18K| FF | LUT| URAM| Words| Bits| Banks| W*Bits*Banks|
    +--------------+----------------+---------+----+----+-----+------+-----+------+-------------+
    |coeffs_U      |fir_coeffs      |        2|   0|   0|    0|    31|   38|     1|         1178|
    |shift_reg0_U  |fir_shift_reg0  |        0|  64|  16|    0|    31|   32|     1|          992|
    |shift_reg1_U  |fir_shift_reg0  |        0|  64|  16|    0|    31|   32|     1|          992|
    +--------------+----------------+---------+----+----+-----+------+-----+------+-------------+
    |Total         |                |        2| 128|  32|    0|    93|  102|     3|         3162|
    +--------------+----------------+---------+----+----+-----+------+-----+------+-------------+

    * FIFO: 
    N/A

    * Expression: 
    +---------------------+----------+-------+---+----+------------+------------+
    |    Variable Name    | Operation| DSP48E| FF| LUT| Bitwidth P0| Bitwidth P1|
    +---------------------+----------+-------+---+----+------------+------------+
    |mul_ln73_fu_251_p2   |     *    |      4|  0|  27|          38|          32|
    |mul_ln74_fu_267_p2   |     *    |      4|  0|  27|          38|          32|
    |mul_ln80_fu_191_p2   |     *    |      4|  0|  27|          32|          38|
    |mul_ln81_fu_206_p2   |     *    |      4|  0|  27|          32|          38|
    |acc0_1_fu_197_p2     |     +    |      0|  0|  71|          64|          64|
    |acc0_fu_257_p2       |     +    |      0|  0|  71|          64|          64|
    |acc1_1_fu_212_p2     |     +    |      0|  0|  71|          64|          64|
    |acc1_fu_273_p2       |     +    |      0|  0|  71|          64|          64|
    |i_fu_171_p2          |     +    |      0|  0|  15|           5|           2|
    |ap_block_state3_io   |    and   |      0|  0|   2|           1|           1|
    |icmp_ln66_fu_165_p2  |   icmp   |      0|  0|  11|           5|           1|
    +---------------------+----------+-------+---+----+------------+------------+
    |Total                |          |     16|  0| 420|         407|         400|
    +---------------------+----------+-------+---+----+------------+------------+

    * Multiplexer: 
    +---------------------+----+-----------+-----+-----------+
    |         Name        | LUT| Input Size| Bits| Total Bits|
    +---------------------+----+-----------+-----+-----------+
    |acc0_0_reg_130       |   9|          2|   64|        128|
    |acc1_0_reg_142       |   9|          2|   64|        128|
    |ap_NS_fsm            |  38|          7|    1|          7|
    |i_0_reg_154          |   9|          2|    5|         10|
    |shift_reg0_address0  |  21|          4|    5|         20|
    |shift_reg0_d0        |  15|          3|   32|         96|
    |shift_reg1_address0  |  21|          4|    5|         20|
    |shift_reg1_d0        |  15|          3|   32|         96|
    |x_TDATA_blk_n        |   9|          2|    1|          2|
    |y_TDATA_blk_n        |   9|          2|    1|          2|
    |y_TDATA_int          |  15|          3|   32|         96|
    +---------------------+----+-----------+-----+-----------+
    |Total                | 170|         34|  242|        605|
    +---------------------+----+-----------+-----+-----------+

    * Register: 
    +-------------------+----+----+-----+-----------+
    |        Name       | FF | LUT| Bits| Const Bits|
    +-------------------+----+----+-----+-----------+
    |acc0_0_reg_130     |  64|   0|   64|          0|
    |acc1_0_reg_142     |  64|   0|   64|          0|
    |ap_CS_fsm          |   6|   0|    6|          0|
    |i_0_reg_154        |   5|   0|    5|          0|
    |i_reg_298          |   5|   0|    5|          0|
    |trunc_ln1_reg_329  |  24|   0|   24|          0|
    |x0_reg_283         |  32|   0|   32|          0|
    |x1_reg_289         |  32|   0|   32|          0|
    |zext_ln70_reg_313  |   5|   0|   64|         59|
    +-------------------+----+----+-----+-----------+
    |Total              | 237|   0|  296|         59|
    +-------------------+----+----+-----+-----------+



================================================================
== Interface
================================================================
* Summary: 
+----------+-----+-----+--------------+--------------+--------------+
| RTL Ports| Dir | Bits|   Protocol   | Source Object|    C Type    |
+----------+-----+-----+--------------+--------------+--------------+
|ap_clk    |  in |    1| ap_ctrl_none |      fir     | return value |
|ap_rst_n  |  in |    1| ap_ctrl_none |      fir     | return value |
|y_TDATA   | out |   32|     axis     |       y      |    pointer   |
|y_TVALID  | out |    1|     axis     |       y      |    pointer   |
|y_TREADY  |  in |    1|     axis     |       y      |    pointer   |
|x_TDATA   |  in |   32|     axis     |       x      |    pointer   |
|x_TVALID  |  in |    1|     axis     |       x      |    pointer   |
|x_TREADY  | out |    1|     axis     |       x      |    pointer   |
+----------+-----+-----+--------------+--------------+--------------+

============================================================
+ Verbose Summary: Synthesis Manager
============================================================
InlineROM: 1
ExposeGlobal: 0
============================================================
+ Verbose Summary: CDFG Model
============================================================
IsTopModel: 1
ResetActiveHigh: 1
IsCombinational: 2
IsDatapathOnly: 2
HasWiredReturn: 1
HasMFsm: 0
HasVarLatency: 1
IsPipeline: 0
IsRtlPipelined: 0
IsInstanceOverlapped: 0
IsDontTouch: 0
HasImplIP: 0
IsGatedGlobalClock: 0


============================================================
+ Verbose Summary: Schedule
============================================================
* Number of FSM states : 6
* Pipeline : 0
* Dataflow Pipeline: 0

* FSM state transitions: 
1 --> 2 
2 --> 3 
3 --> 4 5 
4 --> 3 
5 --> 6 
6 --> 

* FSM state operations: 

State 1 <SV = 0> <Delay = 0.00>
ST_1 : Operation 7 [1/1] (0.00ns)   --->   "%x0 = call i32 @_ssdm_op_Read.axis.volatile.i32P(i32* %x) nounwind" [z7fir/fir.c:61]   --->   Operation 7 'read' 'x0' <Predicate = true> <Delay = 0.00> <Core = "AXI4Stream">   --->   Core 5 'AXI4Stream' <Latency = 0> <II = 1> <Delay = 1.00> <Adapter> <Opcode : >

State 2 <SV = 1> <Delay = 1.76>
ST_2 : Operation 8 [1/1] (0.00ns)   --->   "call void (...)* @_ssdm_op_SpecBitsMap(i32* %y) nounwind, !map !7"   --->   Operation 8 'specbitsmap' <Predicate = true> <Delay = 0.00>
ST_2 : Operation 9 [1/1] (0.00ns)   --->   "call void (...)* @_ssdm_op_SpecBitsMap(i32* %x) nounwind, !map !13"   --->   Operation 9 'specbitsmap' <Predicate = true> <Delay = 0.00>
ST_2 : Operation 10 [1/1] (0.00ns)   --->   "call void (...)* @_ssdm_op_SpecTopModule([4 x i8]* @fir_str) nounwind"   --->   Operation 10 'spectopmodule' <Predicate = true> <Delay = 0.00>
ST_2 : Operation 11 [1/1] (0.00ns)   --->   "call void (...)* @_ssdm_op_SpecInterface(i32 0, [13 x i8]* @p_str, i32 0, i32 0, [1 x i8]* @p_str1, i32 0, i32 0, [1 x i8]* @p_str1, [1 x i8]* @p_str1, [1 x i8]* @p_str1, i32 0, i32 0, i32 0, i32 0, [1 x i8]* @p_str1, [1 x i8]* @p_str1) nounwind" [z7fir/fir.c:55]   --->   Operation 11 'specinterface' <Predicate = true> <Delay = 0.00>
ST_2 : Operation 12 [1/1] (0.00ns)   --->   "call void (...)* @_ssdm_op_SpecInterface(i32* %y, [5 x i8]* @p_str2, i32 1, i32 1, [5 x i8]* @p_str3, i32 0, i32 0, [1 x i8]* @p_str1, [1 x i8]* @p_str1, [1 x i8]* @p_str1, i32 0, i32 0, i32 0, i32 0, [1 x i8]* @p_str1, [1 x i8]* @p_str1) nounwind" [z7fir/fir.c:56]   --->   Operation 12 'specinterface' <Predicate = true> <Delay = 0.00>
ST_2 : Operation 13 [1/1] (0.00ns)   --->   "call void (...)* @_ssdm_op_SpecInterface(i32* %x, [5 x i8]* @p_str2, i32 1, i32 1, [5 x i8]* @p_str3, i32 0, i32 0, [1 x i8]* @p_str1, [1 x i8]* @p_str1, [1 x i8]* @p_str1, i32 0, i32 0, i32 0, i32 0, [1 x i8]* @p_str1, [1 x i8]* @p_str1)" [z7fir/fir.c:57]   --->   Operation 13 'specinterface' <Predicate = true> <Delay = 0.00>
ST_2 : Operation 14 [1/1] (0.00ns)   --->   "%x1 = call i32 @_ssdm_op_Read.axis.volatile.i32P(i32* %x) nounwind" [z7fir/fir.c:62]   --->   Operation 14 'read' 'x1' <Predicate = true> <Delay = 0.00> <Core = "AXI4Stream">   --->   Core 5 'AXI4Stream' <Latency = 0> <II = 1> <Delay = 1.00> <Adapter> <Opcode : >
ST_2 : Operation 15 [1/1] (1.76ns)   --->   "br label %1" [z7fir/fir.c:66]   --->   Operation 15 'br' <Predicate = true> <Delay = 1.76>

State 3 <SV = 2> <Delay = 12.1>
ST_3 : Operation 16 [1/1] (0.00ns)   --->   "%acc0_0 = phi i64 [ 0, %0 ], [ %acc0, %2 ]"   --->   Operation 16 'phi' 'acc0_0' <Predicate = true> <Delay = 0.00>
ST_3 : Operation 17 [1/1] (0.00ns)   --->   "%acc1_0 = phi i64 [ 0, %0 ], [ %acc1, %2 ]"   --->   Operation 17 'phi' 'acc1_0' <Predicate = true> <Delay = 0.00>
ST_3 : Operation 18 [1/1] (0.00ns)   --->   "%i_0 = phi i5 [ -2, %0 ], [ %i, %2 ]"   --->   Operation 18 'phi' 'i_0' <Predicate = true> <Delay = 0.00>
ST_3 : Operation 19 [1/1] (1.36ns)   --->   "%icmp_ln66 = icmp eq i5 %i_0, 0" [z7fir/fir.c:66]   --->   Operation 19 'icmp' 'icmp_ln66' <Predicate = true> <Delay = 1.36> <Core = "Cmp">   --->   Core 25 'Cmp' <Latency = 0> <II = 1> <Delay = 1.36> <FuncUnit> <Opcode : 'icmp'> <InPorts = 2> <OutPorts = 1>
ST_3 : Operation 20 [1/1] (0.00ns)   --->   "%empty = call i32 (...)* @_ssdm_op_SpecLoopTripCount(i64 30, i64 30, i64 30) nounwind"   --->   Operation 20 'speclooptripcount' 'empty' <Predicate = true> <Delay = 0.00>
ST_3 : Operation 21 [1/1] (0.00ns)   --->   "br i1 %icmp_ln66, label %3, label %2" [z7fir/fir.c:66]   --->   Operation 21 'br' <Predicate = true> <Delay = 0.00>
ST_3 : Operation 22 [1/1] (1.78ns)   --->   "%i = add i5 %i_0, -1" [z7fir/fir.c:67]   --->   Operation 22 'add' 'i' <Predicate = (!icmp_ln66)> <Delay = 1.78> <Core = "AddSub">   --->   Core 14 'AddSub' <Latency = 0> <II = 1> <Delay = 1.78> <FuncUnit> <Opcode : 'add' 'sub'> <InPorts = 2> <OutPorts = 1>
ST_3 : Operation 23 [1/1] (0.00ns)   --->   "%zext_ln67 = zext i5 %i to i64" [z7fir/fir.c:67]   --->   Operation 23 'zext' 'zext_ln67' <Predicate = (!icmp_ln66)> <Delay = 0.00>
ST_3 : Operation 24 [1/1] (0.00ns)   --->   "%shift_reg0_addr = getelementptr inbounds [31 x i32]* @shift_reg0, i64 0, i64 %zext_ln67" [z7fir/fir.c:67]   --->   Operation 24 'getelementptr' 'shift_reg0_addr' <Predicate = (!icmp_ln66)> <Delay = 0.00>
ST_3 : Operation 25 [2/2] (2.32ns)   --->   "%data0 = load i32* %shift_reg0_addr, align 4" [z7fir/fir.c:67]   --->   Operation 25 'load' 'data0' <Predicate = (!icmp_ln66)> <Delay = 2.32> <Core = "RAM">   --->   Core 37 'RAM' <Latency = 1> <II = 1> <Delay = 2.32> <Storage> <Opcode : 'load' 'store'> <Ports = 2> <Width = 32> <Depth = 31> <RAM>
ST_3 : Operation 26 [1/1] (0.00ns)   --->   "%shift_reg1_addr = getelementptr inbounds [31 x i32]* @shift_reg1, i64 0, i64 %zext_ln67" [z7fir/fir.c:68]   --->   Operation 26 'getelementptr' 'shift_reg1_addr' <Predicate = (!icmp_ln66)> <Delay = 0.00>
ST_3 : Operation 27 [2/2] (2.32ns)   --->   "%data1 = load i32* %shift_reg1_addr, align 4" [z7fir/fir.c:68]   --->   Operation 27 'load' 'data1' <Predicate = (!icmp_ln66)> <Delay = 2.32> <Core = "RAM">   --->   Core 37 'RAM' <Latency = 1> <II = 1> <Delay = 2.32> <Storage> <Opcode : 'load' 'store'> <Ports = 2> <Width = 32> <Depth = 31> <RAM>
ST_3 : Operation 28 [1/1] (0.00ns)   --->   "%zext_ln70 = zext i5 %i_0 to i64" [z7fir/fir.c:70]   --->   Operation 28 'zext' 'zext_ln70' <Predicate = (!icmp_ln66)> <Delay = 0.00>
ST_3 : Operation 29 [1/1] (0.00ns)   --->   "%coeffs_addr = getelementptr [31 x i38]* @coeffs, i64 0, i64 %zext_ln70" [z7fir/fir.c:73]   --->   Operation 29 'getelementptr' 'coeffs_addr' <Predicate = (!icmp_ln66)> <Delay = 0.00>
ST_3 : Operation 30 [2/2] (3.25ns)   --->   "%coeffs_load = load i38* %coeffs_addr, align 8" [z7fir/fir.c:73]   --->   Operation 30 'load' 'coeffs_load' <Predicate = (!icmp_ln66)> <Delay = 3.25> <Core = "ROM_nP">   --->   Core 52 'ROM_nP' <Latency = 1> <II = 1> <Delay = 3.25> <Storage> <Opcode : 'load'> <Ports = 0> <Width = 38> <Depth = 31> <ROM>
ST_3 : Operation 31 [1/1] (2.32ns)   --->   "store i32 %x0, i32* getelementptr inbounds ([31 x i32]* @shift_reg0, i64 0, i64 0), align 16" [z7fir/fir.c:77]   --->   Operation 31 'store' <Predicate = (icmp_ln66)> <Delay = 2.32> <Core = "RAM">   --->   Core 37 'RAM' <Latency = 1> <II = 1> <Delay = 2.32> <Storage> <Opcode : 'load' 'store'> <Ports = 2> <Width = 32> <Depth = 31> <RAM>
ST_3 : Operation 32 [1/1] (2.32ns)   --->   "store i32 %x1, i32* getelementptr inbounds ([31 x i32]* @shift_reg1, i64 0, i64 0), align 16" [z7fir/fir.c:78]   --->   Operation 32 'store' <Predicate = (icmp_ln66)> <Delay = 2.32> <Core = "RAM">   --->   Core 37 'RAM' <Latency = 1> <II = 1> <Delay = 2.32> <Storage> <Opcode : 'load' 'store'> <Ports = 2> <Width = 32> <Depth = 31> <RAM>
ST_3 : Operation 33 [1/1] (0.00ns)   --->   "%sext_ln80 = sext i32 %x0 to i64" [z7fir/fir.c:80]   --->   Operation 33 'sext' 'sext_ln80' <Predicate = (icmp_ln66)> <Delay = 0.00>
ST_3 : Operation 34 [1/1] (8.60ns)   --->   "%mul_ln80 = mul nsw i64 %sext_ln80, 161516059097" [z7fir/fir.c:80]   --->   Operation 34 'mul' 'mul_ln80' <Predicate = (icmp_ln66)> <Delay = 8.60> <Core = "Mul">   --->   Core 16 'Mul' <Latency = 0> <II = 1> <Delay = 8.69> <FuncUnit> <Opcode : 'mul'> <InPorts = 2> <OutPorts = 1>
ST_3 : Operation 35 [1/1] (3.52ns)   --->   "%acc0_1 = add nsw i64 %mul_ln80, %acc0_0" [z7fir/fir.c:80]   --->   Operation 35 'add' 'acc0_1' <Predicate = (icmp_ln66)> <Delay = 3.52> <Core = "AddSub">   --->   Core 14 'AddSub' <Latency = 0> <II = 1> <Delay = 1.78> <FuncUnit> <Opcode : 'add' 'sub'> <InPorts = 2> <OutPorts = 1>
ST_3 : Operation 36 [1/1] (0.00ns)   --->   "%sext_ln81 = sext i32 %x1 to i64" [z7fir/fir.c:81]   --->   Operation 36 'sext' 'sext_ln81' <Predicate = (icmp_ln66)> <Delay = 0.00>
ST_3 : Operation 37 [1/1] (8.60ns)   --->   "%mul_ln81 = mul nsw i64 %sext_ln81, 161516059097" [z7fir/fir.c:81]   --->   Operation 37 'mul' 'mul_ln81' <Predicate = (icmp_ln66)> <Delay = 8.60> <Core = "Mul">   --->   Core 16 'Mul' <Latency = 0> <II = 1> <Delay = 8.69> <FuncUnit> <Opcode : 'mul'> <InPorts = 2> <OutPorts = 1>
ST_3 : Operation 38 [1/1] (3.52ns)   --->   "%acc1_1 = add nsw i64 %mul_ln81, %acc1_0" [z7fir/fir.c:81]   --->   Operation 38 'add' 'acc1_1' <Predicate = (icmp_ln66)> <Delay = 3.52> <Core = "AddSub">   --->   Core 14 'AddSub' <Latency = 0> <II = 1> <Delay = 1.78> <FuncUnit> <Opcode : 'add' 'sub'> <InPorts = 2> <OutPorts = 1>
ST_3 : Operation 39 [1/1] (0.00ns)   --->   "%trunc_ln = call i24 @_ssdm_op_PartSelect.i24.i64.i32.i32(i64 %acc0_1, i32 40, i32 63)" [z7fir/fir.c:83]   --->   Operation 39 'partselect' 'trunc_ln' <Predicate = (icmp_ln66)> <Delay = 0.00>
ST_3 : Operation 40 [1/1] (0.00ns)   --->   "%sext_ln83 = sext i24 %trunc_ln to i32" [z7fir/fir.c:83]   --->   Operation 40 'sext' 'sext_ln83' <Predicate = (icmp_ln66)> <Delay = 0.00>
ST_3 : Operation 41 [2/2] (0.00ns)   --->   "call void @_ssdm_op_Write.axis.i32P(i32* %y, i32 %sext_ln83) nounwind" [z7fir/fir.c:83]   --->   Operation 41 'write' <Predicate = (icmp_ln66)> <Delay = 0.00> <Core = "AXI4Stream">   --->   Core 5 'AXI4Stream' <Latency = 0> <II = 1> <Delay = 1.00> <Adapter> <Opcode : >
ST_3 : Operation 42 [1/1] (0.00ns)   --->   "%trunc_ln1 = call i24 @_ssdm_op_PartSelect.i24.i64.i32.i32(i64 %acc1_1, i32 40, i32 63)" [z7fir/fir.c:84]   --->   Operation 42 'partselect' 'trunc_ln1' <Predicate = (icmp_ln66)> <Delay = 0.00>

State 4 <SV = 3> <Delay = 15.4>
ST_4 : Operation 43 [1/2] (2.32ns)   --->   "%data0 = load i32* %shift_reg0_addr, align 4" [z7fir/fir.c:67]   --->   Operation 43 'load' 'data0' <Predicate = true> <Delay = 2.32> <Core = "RAM">   --->   Core 37 'RAM' <Latency = 1> <II = 1> <Delay = 2.32> <Storage> <Opcode : 'load' 'store'> <Ports = 2> <Width = 32> <Depth = 31> <RAM>
ST_4 : Operation 44 [1/2] (2.32ns)   --->   "%data1 = load i32* %shift_reg1_addr, align 4" [z7fir/fir.c:68]   --->   Operation 44 'load' 'data1' <Predicate = true> <Delay = 2.32> <Core = "RAM">   --->   Core 37 'RAM' <Latency = 1> <II = 1> <Delay = 2.32> <Storage> <Opcode : 'load' 'store'> <Ports = 2> <Width = 32> <Depth = 31> <RAM>
ST_4 : Operation 45 [1/1] (0.00ns)   --->   "%shift_reg0_addr_1 = getelementptr inbounds [31 x i32]* @shift_reg0, i64 0, i64 %zext_ln70" [z7fir/fir.c:70]   --->   Operation 45 'getelementptr' 'shift_reg0_addr_1' <Predicate = true> <Delay = 0.00>
ST_4 : Operation 46 [1/1] (2.32ns)   --->   "store i32 %data0, i32* %shift_reg0_addr_1, align 4" [z7fir/fir.c:70]   --->   Operation 46 'store' <Predicate = true> <Delay = 2.32> <Core = "RAM">   --->   Core 37 'RAM' <Latency = 1> <II = 1> <Delay = 2.32> <Storage> <Opcode : 'load' 'store'> <Ports = 2> <Width = 32> <Depth = 31> <RAM>
ST_4 : Operation 47 [1/1] (0.00ns)   --->   "%shift_reg1_addr_1 = getelementptr inbounds [31 x i32]* @shift_reg1, i64 0, i64 %zext_ln70" [z7fir/fir.c:71]   --->   Operation 47 'getelementptr' 'shift_reg1_addr_1' <Predicate = true> <Delay = 0.00>
ST_4 : Operation 48 [1/1] (2.32ns)   --->   "store i32 %data1, i32* %shift_reg1_addr_1, align 4" [z7fir/fir.c:71]   --->   Operation 48 'store' <Predicate = true> <Delay = 2.32> <Core = "RAM">   --->   Core 37 'RAM' <Latency = 1> <II = 1> <Delay = 2.32> <Storage> <Opcode : 'load' 'store'> <Ports = 2> <Width = 32> <Depth = 31> <RAM>
ST_4 : Operation 49 [1/1] (0.00ns)   --->   "%sext_ln73 = sext i32 %data0 to i64" [z7fir/fir.c:73]   --->   Operation 49 'sext' 'sext_ln73' <Predicate = true> <Delay = 0.00>
ST_4 : Operation 50 [1/2] (3.25ns)   --->   "%coeffs_load = load i38* %coeffs_addr, align 8" [z7fir/fir.c:73]   --->   Operation 50 'load' 'coeffs_load' <Predicate = true> <Delay = 3.25> <Core = "ROM_nP">   --->   Core 52 'ROM_nP' <Latency = 1> <II = 1> <Delay = 3.25> <Storage> <Opcode : 'load'> <Ports = 0> <Width = 38> <Depth = 31> <ROM>
ST_4 : Operation 51 [1/1] (0.00ns)   --->   "%zext_ln73 = zext i38 %coeffs_load to i64" [z7fir/fir.c:73]   --->   Operation 51 'zext' 'zext_ln73' <Predicate = true> <Delay = 0.00>
ST_4 : Operation 52 [1/1] (8.69ns)   --->   "%mul_ln73 = mul nsw i64 %zext_ln73, %sext_ln73" [z7fir/fir.c:73]   --->   Operation 52 'mul' 'mul_ln73' <Predicate = true> <Delay = 8.69> <Core = "Mul">   --->   Core 16 'Mul' <Latency = 0> <II = 1> <Delay = 8.69> <FuncUnit> <Opcode : 'mul'> <InPorts = 2> <OutPorts = 1>
ST_4 : Operation 53 [1/1] (3.52ns)   --->   "%acc0 = add nsw i64 %mul_ln73, %acc0_0" [z7fir/fir.c:73]   --->   Operation 53 'add' 'acc0' <Predicate = true> <Delay = 3.52> <Core = "AddSub">   --->   Core 14 'AddSub' <Latency = 0> <II = 1> <Delay = 1.78> <FuncUnit> <Opcode : 'add' 'sub'> <InPorts = 2> <OutPorts = 1>
ST_4 : Operation 54 [1/1] (0.00ns)   --->   "%sext_ln74 = sext i32 %data1 to i64" [z7fir/fir.c:74]   --->   Operation 54 'sext' 'sext_ln74' <Predicate = true> <Delay = 0.00>
ST_4 : Operation 55 [1/1] (8.69ns)   --->   "%mul_ln74 = mul nsw i64 %zext_ln73, %sext_ln74" [z7fir/fir.c:74]   --->   Operation 55 'mul' 'mul_ln74' <Predicate = true> <Delay = 8.69> <Core = "Mul">   --->   Core 16 'Mul' <Latency = 0> <II = 1> <Delay = 8.69> <FuncUnit> <Opcode : 'mul'> <InPorts = 2> <OutPorts = 1>
ST_4 : Operation 56 [1/1] (3.52ns)   --->   "%acc1 = add nsw i64 %mul_ln74, %acc1_0" [z7fir/fir.c:74]   --->   Operation 56 'add' 'acc1' <Predicate = true> <Delay = 3.52> <Core = "AddSub">   --->   Core 14 'AddSub' <Latency = 0> <II = 1> <Delay = 1.78> <FuncUnit> <Opcode : 'add' 'sub'> <InPorts = 2> <OutPorts = 1>
ST_4 : Operation 57 [1/1] (0.00ns)   --->   "br label %1" [z7fir/fir.c:66]   --->   Operation 57 'br' <Predicate = true> <Delay = 0.00>

State 5 <SV = 3> <Delay = 0.00>
ST_5 : Operation 58 [1/2] (0.00ns)   --->   "call void @_ssdm_op_Write.axis.i32P(i32* %y, i32 %sext_ln83) nounwind" [z7fir/fir.c:83]   --->   Operation 58 'write' <Predicate = true> <Delay = 0.00> <Core = "AXI4Stream">   --->   Core 5 'AXI4Stream' <Latency = 0> <II = 1> <Delay = 1.00> <Adapter> <Opcode : >
ST_5 : Operation 59 [1/1] (0.00ns)   --->   "%sext_ln84 = sext i24 %trunc_ln1 to i32" [z7fir/fir.c:84]   --->   Operation 59 'sext' 'sext_ln84' <Predicate = true> <Delay = 0.00>
ST_5 : Operation 60 [2/2] (0.00ns)   --->   "call void @_ssdm_op_Write.axis.i32P(i32* %y, i32 %sext_ln84) nounwind" [z7fir/fir.c:84]   --->   Operation 60 'write' <Predicate = true> <Delay = 0.00> <Core = "AXI4Stream">   --->   Core 5 'AXI4Stream' <Latency = 0> <II = 1> <Delay = 1.00> <Adapter> <Opcode : >

State 6 <SV = 4> <Delay = 0.00>
ST_6 : Operation 61 [1/2] (0.00ns)   --->   "call void @_ssdm_op_Write.axis.i32P(i32* %y, i32 %sext_ln84) nounwind" [z7fir/fir.c:84]   --->   Operation 61 'write' <Predicate = true> <Delay = 0.00> <Core = "AXI4Stream">   --->   Core 5 'AXI4Stream' <Latency = 0> <II = 1> <Delay = 1.00> <Adapter> <Opcode : >
ST_6 : Operation 62 [1/1] (0.00ns)   --->   "ret void" [z7fir/fir.c:85]   --->   Operation 62 'ret' <Predicate = true> <Delay = 0.00>


============================================================
+ Verbose Summary: Binding
============================================================
STG Binding: 
---------------- STG Properties BEGIN ----------------
- Is combinational: 0
- Is one-state seq: 0
- Is datapath-only: 0
- Is pipelined: 0
- Is top level: 1
Port [ Return ] is wired: 1; IO mode=ap_ctrl_none:ce=0
Port [ y]:  wired=1; compound=1; hidden=0; nouse=0; global=0; static=0; extern=0; dir=1; type=0; pingpong=0; private_global=0; IO mode=axis:ce=0
Port [ x]:  wired=1; compound=1; hidden=0; nouse=0; global=0; static=0; extern=0; dir=0; type=0; pingpong=0; private_global=0; IO mode=axis:ce=0
Port [ shift_reg0]:  wired=0; compound=1; hidden=1; nouse=0; global=1; static=1; extern=0; dir=2; type=1; pingpong=0; private_global=1; linkage=7; visibility=0; MemPort=[23]; IO mode=ap_memory:ce=0
Port [ shift_reg1]:  wired=0; compound=1; hidden=1; nouse=0; global=1; static=1; extern=0; dir=2; type=1; pingpong=0; private_global=1; linkage=7; visibility=0; MemPort=[23]; IO mode=ap_memory:ce=0
Port [ coeffs]:  wired=0; compound=1; hidden=1; nouse=0; global=1; static=1; extern=0; dir=0; type=1; pingpong=0; private_global=1; linkage=7; visibility=0; MemPort=[1]; IO mode=ap_memory:ce=0
---------------- STG Properties END ------------------

---------------- Datapath Model BEGIN ----------------

<LifeTime>
<method=bitvector/>
x0                 (read             ) [ 0011100]
specbitsmap_ln0    (specbitsmap      ) [ 0000000]
specbitsmap_ln0    (specbitsmap      ) [ 0000000]
spectopmodule_ln0  (spectopmodule    ) [ 0000000]
specinterface_ln55 (specinterface    ) [ 0000000]
specinterface_ln56 (specinterface    ) [ 0000000]
specinterface_ln57 (specinterface    ) [ 0000000]
x1                 (read             ) [ 0001100]
br_ln66            (br               ) [ 0011100]
acc0_0             (phi              ) [ 0001100]
acc1_0             (phi              ) [ 0001100]
i_0                (phi              ) [ 0001000]
icmp_ln66          (icmp             ) [ 0001100]
empty              (speclooptripcount) [ 0000000]
br_ln66            (br               ) [ 0000000]
i                  (add              ) [ 0011100]
zext_ln67          (zext             ) [ 0000000]
shift_reg0_addr    (getelementptr    ) [ 0000100]
shift_reg1_addr    (getelementptr    ) [ 0000100]
zext_ln70          (zext             ) [ 0000100]
coeffs_addr        (getelementptr    ) [ 0000100]
store_ln77         (store            ) [ 0000000]
store_ln78         (store            ) [ 0000000]
sext_ln80          (sext             ) [ 0000000]
mul_ln80           (mul              ) [ 0000000]
acc0_1             (add              ) [ 0000000]
sext_ln81          (sext             ) [ 0000000]
mul_ln81           (mul              ) [ 0000000]
acc1_1             (add              ) [ 0000000]
trunc_ln           (partselect       ) [ 0000000]
sext_ln83          (sext             ) [ 0000010]
trunc_ln1          (partselect       ) [ 0000010]
data0              (load             ) [ 0000000]
data1              (load             ) [ 0000000]
shift_reg0_addr_1  (getelementptr    ) [ 0000000]
store_ln70         (store            ) [ 0000000]
shift_reg1_addr_1  (getelementptr    ) [ 0000000]
store_ln71         (store            ) [ 0000000]
sext_ln73          (sext             ) [ 0000000]
coeffs_load        (load             ) [ 0000000]
zext_ln73          (zext             ) [ 0000000]
mul_ln73           (mul              ) [ 0000000]
acc0               (add              ) [ 0011100]
sext_ln74          (sext             ) [ 0000000]
mul_ln74           (mul              ) [ 0000000]
acc1               (add              ) [ 0011100]
br_ln66            (br               ) [ 0011100]
write_ln83         (write            ) [ 0000000]
sext_ln84          (sext             ) [ 0000001]
write_ln84         (write            ) [ 0000000]
ret_ln85           (ret              ) [ 0000000]
</LifeTime>

<model>

<comp_list>
<comp id="0" class="1000" name="y">
<pin_list>
<pin id="1" dir="1" index="0" bw="1" slack="0"/>
</pin_list>
<bind>
<StgValue><ssdm name="y"/></StgValue>
</bind>
</comp>

<comp id="2" class="1000" name="x">
<pin_list>
<pin id="3" dir="1" index="0" bw="1" slack="0"/>
</pin_list>
<bind>
<StgValue><ssdm name="x"/></StgValue>
</bind>
</comp>

<comp id="4" class="1000" name="shift_reg0">
<pin_list>
<pin id="5" dir="1" index="0" bw="1" slack="0"/>
</pin_list>
<bind>
<StgValue><ssdm name="shift_reg0"/><MemPortTyVec>2 3 </MemPortTyVec>
</StgValue>
</bind>
</comp>

<comp id="6" class="1000" name="shift_reg1">
<pin_list>
<pin id="7" dir="1" index="0" bw="1" slack="0"/>
</pin_list>
<bind>
<StgValue><ssdm name="shift_reg1"/><MemPortTyVec>2 3 </MemPortTyVec>
</StgValue>
</bind>
</comp>

<comp id="8" class="1000" name="coeffs">
<pin_list>
<pin id="9" dir="1" index="0" bw="1" slack="0"/>
</pin_list>
<bind>
<StgValue><ssdm name="coeffs"/><MemPortTyVec>1 </MemPortTyVec>
</StgValue>
</bind>
</comp>

<comp id="10" class="1001" name="const_10">
<pin_list>
<pin id="11" dir="1" index="0" bw="1" slack="0"/>
</pin_list>
<bind>
<StgValue><ssdm name="_ssdm_op_Read.axis.volatile.i32P"/></StgValue>
</bind>
</comp>

<comp id="12" class="1001" name="const_12">
<pin_list>
<pin id="13" dir="1" index="0" bw="1" slack="2147483647"/>
</pin_list>
<bind>
<StgValue><ssdm name="_ssdm_op_SpecBitsMap"/></StgValue>
</bind>
</comp>

<comp id="14" class="1001" name="const_14">
<pin_list>
<pin id="15" dir="1" index="0" bw="1" slack="2147483647"/>
</pin_list>
<bind>
<StgValue><ssdm name="_ssdm_op_SpecTopModule"/></StgValue>
</bind>
</comp>

<comp id="16" class="1001" name="const_16">
<pin_list>
<pin id="17" dir="1" index="0" bw="1" slack="2147483647"/>
</pin_list>
<bind>
<StgValue><ssdm name="fir_str"/></StgValue>
</bind>
</comp>

<comp id="18" class="1001" name="const_18">
<pin_list>
<pin id="19" dir="1" index="0" bw="1" slack="2147483647"/>
</pin_list>
<bind>
<StgValue><ssdm name="_ssdm_op_SpecInterface"/></StgValue>
</bind>
</comp>

<comp id="20" class="1001" name="const_20">
<pin_list>
<pin id="21" dir="1" index="0" bw="1" slack="2147483647"/>
</pin_list>
<bind>
<StgValue><ssdm name=""/></StgValue>
</bind>
</comp>

<comp id="22" class="1001" name="const_22">
<pin_list>
<pin id="23" dir="1" index="0" bw="1" slack="2147483647"/>
</pin_list>
<bind>
<StgValue><ssdm name="p_str"/></StgValue>
</bind>
</comp>

<comp id="24" class="1001" name="const_24">
<pin_list>
<pin id="25" dir="1" index="0" bw="1" slack="2147483647"/>
</pin_list>
<bind>
<StgValue><ssdm name="p_str1"/></StgValue>
</bind>
</comp>

<comp id="26" class="1001" name="const_26">
<pin_list>
<pin id="27" dir="1" index="0" bw="1" slack="2147483647"/>
</pin_list>
<bind>
<StgValue><ssdm name="p_str2"/></StgValue>
</bind>
</comp>

<comp id="28" class="1001" name="const_28">
<pin_list>
<pin id="29" dir="1" index="0" bw="1" slack="2147483647"/>
</pin_list>
<bind>
<StgValue><ssdm name=""/></StgValue>
</bind>
</comp>

<comp id="30" class="1001" name="const_30">
<pin_list>
<pin id="31" dir="1" index="0" bw="1" slack="2147483647"/>
</pin_list>
<bind>
<StgValue><ssdm name="p_str3"/></StgValue>
</bind>
</comp>

<comp id="32" class="1001" name="const_32">
<pin_list>
<pin id="33" dir="1" index="0" bw="1" slack="0"/>
</pin_list>
<bind>
<StgValue><ssdm name=""/></StgValue>
</bind>
</comp>

<comp id="34" class="1001" name="const_34">
<pin_list>
<pin id="35" dir="1" index="0" bw="1" slack="1"/>
</pin_list>
<bind>
<StgValue><ssdm name=""/></StgValue>
</bind>
</comp>

<comp id="36" class="1001" name="const_36">
<pin_list>
<pin id="37" dir="1" index="0" bw="1" slack="0"/>
</pin_list>
<bind>
<StgValue><ssdm name=""/></StgValue>
</bind>
</comp>

<comp id="38" class="1001" name="const_38">
<pin_list>
<pin id="39" dir="1" index="0" bw="1" slack="2147483647"/>
</pin_list>
<bind>
<StgValue><ssdm name="_ssdm_op_SpecLoopTripCount"/></StgValue>
</bind>
</comp>

<comp id="40" class="1001" name="const_40">
<pin_list>
<pin id="41" dir="1" index="0" bw="1" slack="2147483647"/>
</pin_list>
<bind>
<StgValue><ssdm name=""/></StgValue>
</bind>
</comp>

<comp id="42" class="1001" name="const_42">
<pin_list>
<pin id="43" dir="1" index="0" bw="1" slack="0"/>
</pin_list>
<bind>
<StgValue><ssdm name=""/></StgValue>
</bind>
</comp>

<comp id="44" class="1001" name="const_44">
<pin_list>
<pin id="45" dir="1" index="0" bw="1" slack="0"/>
</pin_list>
<bind>
<StgValue><ssdm name=""/></StgValue>
</bind>
</comp>

<comp id="46" class="1001" name="const_46">
<pin_list>
<pin id="47" dir="1" index="0" bw="1" slack="0"/>
</pin_list>
<bind>
<StgValue><ssdm name=""/></StgValue>
</bind>
</comp>

<comp id="48" class="1001" name="const_48">
<pin_list>
<pin id="49" dir="1" index="0" bw="1" slack="0"/>
</pin_list>
<bind>
<StgValue><ssdm name=""/></StgValue>
</bind>
</comp>

<comp id="50" class="1001" name="const_50">
<pin_list>
<pin id="51" dir="1" index="0" bw="1" slack="0"/>
</pin_list>
<bind>
<StgValue><ssdm name="_ssdm_op_PartSelect.i24.i64.i32.i32"/></StgValue>
</bind>
</comp>

<comp id="52" class="1001" name="const_52">
<pin_list>
<pin id="53" dir="1" index="0" bw="1" slack="0"/>
</pin_list>
<bind>
<StgValue><ssdm name=""/></StgValue>
</bind>
</comp>

<comp id="54" class="1001" name="const_54">
<pin_list>
<pin id="55" dir="1" index="0" bw="1" slack="0"/>
</pin_list>
<bind>
<StgValue><ssdm name=""/></StgValue>
</bind>
</comp>

<comp id="56" class="1001" name="const_56">
<pin_list>
<pin id="57" dir="1" index="0" bw="1" slack="0"/>
</pin_list>
<bind>
<StgValue><ssdm name="_ssdm_op_Write.axis.i32P"/></StgValue>
</bind>
</comp>

<comp id="58" class="1004" name="grp_read_fu_58">
<pin_list>
<pin id="59" dir="0" index="0" bw="32" slack="0"/>
<pin id="60" dir="0" index="1" bw="32" slack="0"/>
<pin id="61" dir="1" index="2" bw="32" slack="1"/>
</pin_list>
<bind>
<opcode="read(1150) " fcode="read"/>
<opset="x0/1 x1/2 "/>
</bind>
</comp>

<comp id="64" class="1004" name="grp_write_fu_64">
<pin_list>
<pin id="65" dir="0" index="0" bw="0" slack="0"/>
<pin id="66" dir="0" index="1" bw="32" slack="0"/>
<pin id="67" dir="0" index="2" bw="24" slack="0"/>
<pin id="68" dir="1" index="3" bw="0" slack="2147483647"/>
</pin_list>
<bind>
<opcode="write(1151) " fcode="write"/>
<opset="write_ln83/3 write_ln84/5 "/>
</bind>
</comp>

<comp id="71" class="1004" name="shift_reg0_addr_gep_fu_71">
<pin_list>
<pin id="72" dir="0" index="0" bw="32" slack="0"/>
<pin id="73" dir="0" index="1" bw="1" slack="0"/>
<pin id="74" dir="0" index="2" bw="5" slack="0"/>
<pin id="75" dir="1" index="3" bw="5" slack="0"/>
</pin_list>
<bind>
<opcode="getelementptr(29) " fcode="getelementptr"/>
<opset="shift_reg0_addr/3 "/>
</bind>
</comp>

<comp id="78" class="1004" name="grp_access_fu_78">
<pin_list>
<pin id="79" dir="0" index="0" bw="5" slack="0"/>
<pin id="80" dir="0" index="1" bw="32" slack="0"/>
<pin id="81" dir="0" index="2" bw="0" slack="2147483647"/>
<pin id="82" dir="1" index="3" bw="32" slack="0"/>
</pin_list>
<bind>
<opcode="load(27) store(28) " fcode="store"/>
<opset="data0/3 store_ln77/3 store_ln70/4 "/>
</bind>
</comp>

<comp id="84" class="1004" name="shift_reg1_addr_gep_fu_84">
<pin_list>
<pin id="85" dir="0" index="0" bw="32" slack="0"/>
<pin id="86" dir="0" index="1" bw="1" slack="0"/>
<pin id="87" dir="0" index="2" bw="5" slack="0"/>
<pin id="88" dir="1" index="3" bw="5" slack="0"/>
</pin_list>
<bind>
<opcode="getelementptr(29) " fcode="getelementptr"/>
<opset="shift_reg1_addr/3 "/>
</bind>
</comp>

<comp id="91" class="1004" name="grp_access_fu_91">
<pin_list>
<pin id="92" dir="0" index="0" bw="5" slack="0"/>
<pin id="93" dir="0" index="1" bw="32" slack="0"/>
<pin id="94" dir="0" index="2" bw="0" slack="2147483647"/>
<pin id="95" dir="1" index="3" bw="32" slack="0"/>
</pin_list>
<bind>
<opcode="load(27) store(28) " fcode="store"/>
<opset="data1/3 store_ln78/3 store_ln71/4 "/>
</bind>
</comp>

<comp id="97" class="1004" name="coeffs_addr_gep_fu_97">
<pin_list>
<pin id="98" dir="0" index="0" bw="38" slack="0"/>
<pin id="99" dir="0" index="1" bw="1" slack="0"/>
<pin id="100" dir="0" index="2" bw="5" slack="0"/>
<pin id="101" dir="1" index="3" bw="5" slack="0"/>
</pin_list>
<bind>
<opcode="getelementptr(29) " fcode="getelementptr"/>
<opset="coeffs_addr/3 "/>
</bind>
</comp>

<comp id="104" class="1004" name="grp_access_fu_104">
<pin_list>
<pin id="105" dir="0" index="0" bw="5" slack="0"/>
<pin id="106" dir="0" index="1" bw="38" slack="2147483647"/>
<pin id="107" dir="0" index="2" bw="0" slack="2147483647"/>
<pin id="108" dir="1" index="3" bw="38" slack="0"/>
</pin_list>
<bind>
<opcode="load(27) " fcode="load"/>
<opset="coeffs_load/3 "/>
</bind>
</comp>

<comp id="112" class="1004" name="shift_reg0_addr_1_gep_fu_112">
<pin_list>
<pin id="113" dir="0" index="0" bw="32" slack="0"/>
<pin id="114" dir="0" index="1" bw="1" slack="0"/>
<pin id="115" dir="0" index="2" bw="5" slack="1"/>
<pin id="116" dir="1" index="3" bw="5" slack="0"/>
</pin_list>
<bind>
<opcode="getelementptr(29) " fcode="getelementptr"/>
<opset="shift_reg0_addr_1/4 "/>
</bind>
</comp>

<comp id="121" class="1004" name="shift_reg1_addr_1_gep_fu_121">
<pin_list>
<pin id="122" dir="0" index="0" bw="32" slack="0"/>
<pin id="123" dir="0" index="1" bw="1" slack="0"/>
<pin id="124" dir="0" index="2" bw="5" slack="1"/>
<pin id="125" dir="1" index="3" bw="5" slack="0"/>
</pin_list>
<bind>
<opcode="getelementptr(29) " fcode="getelementptr"/>
<opset="shift_reg1_addr_1/4 "/>
</bind>
</comp>

<comp id="130" class="1005" name="acc0_0_reg_130">
<pin_list>
<pin id="131" dir="0" index="0" bw="64" slack="1"/>
<pin id="132" dir="1" index="1" bw="64" slack="1"/>
</pin_list>
<bind>
<opset="acc0_0 (phireg) "/>
</bind>
</comp>

<comp id="134" class="1004" name="acc0_0_phi_fu_134">
<pin_list>
<pin id="135" dir="0" index="0" bw="1" slack="1"/>
<pin id="136" dir="0" index="1" bw="0" slack="2147483647"/>
<pin id="137" dir="0" index="2" bw="64" slack="1"/>
<pin id="138" dir="0" index="3" bw="0" slack="2147483647"/>
<pin id="139" dir="1" index="4" bw="64" slack="0"/>
</pin_list>
<bind>
<opcode="phi(47) " fcode="phi"/>
<opset="acc0_0/3 "/>
</bind>
</comp>

<comp id="142" class="1005" name="acc1_0_reg_142">
<pin_list>
<pin id="143" dir="0" index="0" bw="64" slack="1"/>
<pin id="144" dir="1" index="1" bw="64" slack="1"/>
</pin_list>
<bind>
<opset="acc1_0 (phireg) "/>
</bind>
</comp>

<comp id="146" class="1004" name="acc1_0_phi_fu_146">
<pin_list>
<pin id="147" dir="0" index="0" bw="1" slack="1"/>
<pin id="148" dir="0" index="1" bw="0" slack="2147483647"/>
<pin id="149" dir="0" index="2" bw="64" slack="1"/>
<pin id="150" dir="0" index="3" bw="0" slack="2147483647"/>
<pin id="151" dir="1" index="4" bw="64" slack="0"/>
</pin_list>
<bind>
<opcode="phi(47) " fcode="phi"/>
<opset="acc1_0/3 "/>
</bind>
</comp>

<comp id="154" class="1005" name="i_0_reg_154">
<pin_list>
<pin id="155" dir="0" index="0" bw="5" slack="1"/>
<pin id="156" dir="1" index="1" bw="5" slack="1"/>
</pin_list>
<bind>
<opset="i_0 (phireg) "/>
</bind>
</comp>

<comp id="158" class="1004" name="i_0_phi_fu_158">
<pin_list>
<pin id="159" dir="0" index="0" bw="2" slack="1"/>
<pin id="160" dir="0" index="1" bw="0" slack="2147483647"/>
<pin id="161" dir="0" index="2" bw="5" slack="0"/>
<pin id="162" dir="0" index="3" bw="0" slack="2147483647"/>
<pin id="163" dir="1" index="4" bw="5" slack="0"/>
</pin_list>
<bind>
<opcode="phi(47) " fcode="phi"/>
<opset="i_0/3 "/>
</bind>
</comp>

<comp id="165" class="1004" name="icmp_ln66_fu_165">
<pin_list>
<pin id="166" dir="0" index="0" bw="5" slack="0"/>
<pin id="167" dir="0" index="1" bw="5" slack="0"/>
<pin id="168" dir="1" index="2" bw="1" slack="2147483647"/>
</pin_list>
<bind>
<opcode="icmp(45) " fcode="icmp"/>
<opset="icmp_ln66/3 "/>
</bind>
</comp>

<comp id="171" class="1004" name="i_fu_171">
<pin_list>
<pin id="172" dir="0" index="0" bw="5" slack="0"/>
<pin id="173" dir="0" index="1" bw="1" slack="0"/>
<pin id="174" dir="1" index="2" bw="5" slack="0"/>
</pin_list>
<bind>
<opcode="add(8) " fcode="add"/>
<opset="i/3 "/>
</bind>
</comp>

<comp id="177" class="1004" name="zext_ln67_fu_177">
<pin_list>
<pin id="178" dir="0" index="0" bw="5" slack="0"/>
<pin id="179" dir="1" index="1" bw="64" slack="0"/>
</pin_list>
<bind>
<opcode="zext(34) " fcode="zext"/>
<opset="zext_ln67/3 "/>
</bind>
</comp>

<comp id="183" class="1004" name="zext_ln70_fu_183">
<pin_list>
<pin id="184" dir="0" index="0" bw="5" slack="0"/>
<pin id="185" dir="1" index="1" bw="64" slack="0"/>
</pin_list>
<bind>
<opcode="zext(34) " fcode="zext"/>
<opset="zext_ln70/3 "/>
</bind>
</comp>

<comp id="188" class="1004" name="sext_ln80_fu_188">
<pin_list>
<pin id="189" dir="0" index="0" bw="32" slack="2"/>
<pin id="190" dir="1" index="1" bw="64" slack="0"/>
</pin_list>
<bind>
<opcode="sext(35) " fcode="sext"/>
<opset="sext_ln80/3 "/>
</bind>
</comp>

<comp id="191" class="1004" name="mul_ln80_fu_191">
<pin_list>
<pin id="192" dir="0" index="0" bw="32" slack="0"/>
<pin id="193" dir="0" index="1" bw="39" slack="0"/>
<pin id="194" dir="1" index="2" bw="64" slack="0"/>
</pin_list>
<bind>
<opcode="mul(12) " fcode="mul"/>
<opset="mul_ln80/3 "/>
</bind>
</comp>

<comp id="197" class="1004" name="acc0_1_fu_197">
<pin_list>
<pin id="198" dir="0" index="0" bw="64" slack="0"/>
<pin id="199" dir="0" index="1" bw="64" slack="0"/>
<pin id="200" dir="1" index="2" bw="64" slack="0"/>
</pin_list>
<bind>
<opcode="add(8) " fcode="add"/>
<opset="acc0_1/3 "/>
</bind>
</comp>

<comp id="203" class="1004" name="sext_ln81_fu_203">
<pin_list>
<pin id="204" dir="0" index="0" bw="32" slack="1"/>
<pin id="205" dir="1" index="1" bw="64" slack="0"/>
</pin_list>
<bind>
<opcode="sext(35) " fcode="sext"/>
<opset="sext_ln81/3 "/>
</bind>
</comp>

<comp id="206" class="1004" name="mul_ln81_fu_206">
<pin_list>
<pin id="207" dir="0" index="0" bw="32" slack="0"/>
<pin id="208" dir="0" index="1" bw="39" slack="0"/>
<pin id="209" dir="1" index="2" bw="64" slack="0"/>
</pin_list>
<bind>
<opcode="mul(12) " fcode="mul"/>
<opset="mul_ln81/3 "/>
</bind>
</comp>

<comp id="212" class="1004" name="acc1_1_fu_212">
<pin_list>
<pin id="213" dir="0" index="0" bw="64" slack="0"/>
<pin id="214" dir="0" index="1" bw="64" slack="0"/>
<pin id="215" dir="1" index="2" bw="64" slack="0"/>
</pin_list>
<bind>
<opcode="add(8) " fcode="add"/>
<opset="acc1_1/3 "/>
</bind>
</comp>

<comp id="218" class="1004" name="trunc_ln_fu_218">
<pin_list>
<pin id="219" dir="0" index="0" bw="24" slack="0"/>
<pin id="220" dir="0" index="1" bw="64" slack="0"/>
<pin id="221" dir="0" index="2" bw="7" slack="0"/>
<pin id="222" dir="0" index="3" bw="7" slack="0"/>
<pin id="223" dir="1" index="4" bw="24" slack="0"/>
</pin_list>
<bind>
<opcode="partselect(1002) " fcode="partselect"/>
<opset="trunc_ln/3 "/>
</bind>
</comp>

<comp id="228" class="1004" name="sext_ln83_fu_228">
<pin_list>
<pin id="229" dir="0" index="0" bw="24" slack="0"/>
<pin id="230" dir="1" index="1" bw="32" slack="0"/>
</pin_list>
<bind>
<opcode="sext(35) " fcode="sext"/>
<opset="sext_ln83/3 "/>
</bind>
</comp>

<comp id="233" class="1004" name="trunc_ln1_fu_233">
<pin_list>
<pin id="234" dir="0" index="0" bw="24" slack="0"/>
<pin id="235" dir="0" index="1" bw="64" slack="0"/>
<pin id="236" dir="0" index="2" bw="7" slack="0"/>
<pin id="237" dir="0" index="3" bw="7" slack="0"/>
<pin id="238" dir="1" index="4" bw="24" slack="1"/>
</pin_list>
<bind>
<opcode="partselect(1002) " fcode="partselect"/>
<opset="trunc_ln1/3 "/>
</bind>
</comp>

<comp id="243" class="1004" name="sext_ln73_fu_243">
<pin_list>
<pin id="244" dir="0" index="0" bw="32" slack="0"/>
<pin id="245" dir="1" index="1" bw="64" slack="0"/>
</pin_list>
<bind>
<opcode="sext(35) " fcode="sext"/>
<opset="sext_ln73/4 "/>
</bind>
</comp>

<comp id="247" class="1004" name="zext_ln73_fu_247">
<pin_list>
<pin id="248" dir="0" index="0" bw="38" slack="0"/>
<pin id="249" dir="1" index="1" bw="64" slack="0"/>
</pin_list>
<bind>
<opcode="zext(34) " fcode="zext"/>
<opset="zext_ln73/4 "/>
</bind>
</comp>

<comp id="251" class="1004" name="mul_ln73_fu_251">
<pin_list>
<pin id="252" dir="0" index="0" bw="38" slack="0"/>
<pin id="253" dir="0" index="1" bw="32" slack="0"/>
<pin id="254" dir="1" index="2" bw="64" slack="0"/>
</pin_list>
<bind>
<opcode="mul(12) " fcode="mul"/>
<opset="mul_ln73/4 "/>
</bind>
</comp>

<comp id="257" class="1004" name="acc0_fu_257">
<pin_list>
<pin id="258" dir="0" index="0" bw="64" slack="0"/>
<pin id="259" dir="0" index="1" bw="64" slack="1"/>
<pin id="260" dir="1" index="2" bw="64" slack="1"/>
</pin_list>
<bind>
<opcode="add(8) " fcode="add"/>
<opset="acc0/4 "/>
</bind>
</comp>

<comp id="263" class="1004" name="sext_ln74_fu_263">
<pin_list>
<pin id="264" dir="0" index="0" bw="32" slack="0"/>
<pin id="265" dir="1" index="1" bw="64" slack="0"/>
</pin_list>
<bind>
<opcode="sext(35) " fcode="sext"/>
<opset="sext_ln74/4 "/>
</bind>
</comp>

<comp id="267" class="1004" name="mul_ln74_fu_267">
<pin_list>
<pin id="268" dir="0" index="0" bw="38" slack="0"/>
<pin id="269" dir="0" index="1" bw="32" slack="0"/>
<pin id="270" dir="1" index="2" bw="64" slack="0"/>
</pin_list>
<bind>
<opcode="mul(12) " fcode="mul"/>
<opset="mul_ln74/4 "/>
</bind>
</comp>

<comp id="273" class="1004" name="acc1_fu_273">
<pin_list>
<pin id="274" dir="0" index="0" bw="64" slack="0"/>
<pin id="275" dir="0" index="1" bw="64" slack="1"/>
<pin id="276" dir="1" index="2" bw="64" slack="1"/>
</pin_list>
<bind>
<opcode="add(8) " fcode="add"/>
<opset="acc1/4 "/>
</bind>
</comp>

<comp id="279" class="1004" name="sext_ln84_fu_279">
<pin_list>
<pin id="280" dir="0" index="0" bw="24" slack="1"/>
<pin id="281" dir="1" index="1" bw="32" slack="0"/>
</pin_list>
<bind>
<opcode="sext(35) " fcode="sext"/>
<opset="sext_ln84/5 "/>
</bind>
</comp>

<comp id="283" class="1005" name="x0_reg_283">
<pin_list>
<pin id="284" dir="0" index="0" bw="32" slack="2"/>
<pin id="285" dir="1" index="1" bw="32" slack="2"/>
</pin_list>
<bind>
<opset="x0 "/>
</bind>
</comp>

<comp id="289" class="1005" name="x1_reg_289">
<pin_list>
<pin id="290" dir="0" index="0" bw="32" slack="1"/>
<pin id="291" dir="1" index="1" bw="32" slack="1"/>
</pin_list>
<bind>
<opset="x1 "/>
</bind>
</comp>

<comp id="298" class="1005" name="i_reg_298">
<pin_list>
<pin id="299" dir="0" index="0" bw="5" slack="0"/>
<pin id="300" dir="1" index="1" bw="5" slack="0"/>
</pin_list>
<bind>
<opset="i "/>
</bind>
</comp>

<comp id="303" class="1005" name="shift_reg0_addr_reg_303">
<pin_list>
<pin id="304" dir="0" index="0" bw="5" slack="1"/>
<pin id="305" dir="1" index="1" bw="5" slack="1"/>
</pin_list>
<bind>
<opset="shift_reg0_addr "/>
</bind>
</comp>

<comp id="308" class="1005" name="shift_reg1_addr_reg_308">
<pin_list>
<pin id="309" dir="0" index="0" bw="5" slack="1"/>
<pin id="310" dir="1" index="1" bw="5" slack="1"/>
</pin_list>
<bind>
<opset="shift_reg1_addr "/>
</bind>
</comp>

<comp id="313" class="1005" name="zext_ln70_reg_313">
<pin_list>
<pin id="314" dir="0" index="0" bw="64" slack="1"/>
<pin id="315" dir="1" index="1" bw="64" slack="1"/>
</pin_list>
<bind>
<opset="zext_ln70 "/>
</bind>
</comp>

<comp id="319" class="1005" name="coeffs_addr_reg_319">
<pin_list>
<pin id="320" dir="0" index="0" bw="5" slack="1"/>
<pin id="321" dir="1" index="1" bw="5" slack="1"/>
</pin_list>
<bind>
<opset="coeffs_addr "/>
</bind>
</comp>

<comp id="324" class="1005" name="sext_ln83_reg_324">
<pin_list>
<pin id="325" dir="0" index="0" bw="32" slack="1"/>
<pin id="326" dir="1" index="1" bw="32" slack="1"/>
</pin_list>
<bind>
<opset="sext_ln83 "/>
</bind>
</comp>

<comp id="329" class="1005" name="trunc_ln1_reg_329">
<pin_list>
<pin id="330" dir="0" index="0" bw="24" slack="1"/>
<pin id="331" dir="1" index="1" bw="24" slack="1"/>
</pin_list>
<bind>
<opset="trunc_ln1 "/>
</bind>
</comp>

<comp id="334" class="1005" name="acc0_reg_334">
<pin_list>
<pin id="335" dir="0" index="0" bw="64" slack="1"/>
<pin id="336" dir="1" index="1" bw="64" slack="1"/>
</pin_list>
<bind>
<opset="acc0 "/>
</bind>
</comp>

<comp id="339" class="1005" name="acc1_reg_339">
<pin_list>
<pin id="340" dir="0" index="0" bw="64" slack="1"/>
<pin id="341" dir="1" index="1" bw="64" slack="1"/>
</pin_list>
<bind>
<opset="acc1 "/>
</bind>
</comp>

<comp id="344" class="1005" name="sext_ln84_reg_344">
<pin_list>
<pin id="345" dir="0" index="0" bw="32" slack="1"/>
<pin id="346" dir="1" index="1" bw="32" slack="1"/>
</pin_list>
<bind>
<opset="sext_ln84 "/>
</bind>
</comp>

</comp_list>

<net_list>
<net id="62"><net_src comp="10" pin="0"/><net_sink comp="58" pin=0"/></net>

<net id="63"><net_src comp="2" pin="0"/><net_sink comp="58" pin=1"/></net>

<net id="69"><net_src comp="56" pin="0"/><net_sink comp="64" pin=0"/></net>

<net id="70"><net_src comp="0" pin="0"/><net_sink comp="64" pin=1"/></net>

<net id="76"><net_src comp="4" pin="0"/><net_sink comp="71" pin=0"/></net>

<net id="77"><net_src comp="32" pin="0"/><net_sink comp="71" pin=1"/></net>

<net id="83"><net_src comp="71" pin="3"/><net_sink comp="78" pin=0"/></net>

<net id="89"><net_src comp="6" pin="0"/><net_sink comp="84" pin=0"/></net>

<net id="90"><net_src comp="32" pin="0"/><net_sink comp="84" pin=1"/></net>

<net id="96"><net_src comp="84" pin="3"/><net_sink comp="91" pin=0"/></net>

<net id="102"><net_src comp="8" pin="0"/><net_sink comp="97" pin=0"/></net>

<net id="103"><net_src comp="32" pin="0"/><net_sink comp="97" pin=1"/></net>

<net id="109"><net_src comp="97" pin="3"/><net_sink comp="104" pin=0"/></net>

<net id="110"><net_src comp="44" pin="0"/><net_sink comp="78" pin=0"/></net>

<net id="111"><net_src comp="46" pin="0"/><net_sink comp="91" pin=0"/></net>

<net id="117"><net_src comp="4" pin="0"/><net_sink comp="112" pin=0"/></net>

<net id="118"><net_src comp="32" pin="0"/><net_sink comp="112" pin=1"/></net>

<net id="119"><net_src comp="78" pin="3"/><net_sink comp="78" pin=1"/></net>

<net id="120"><net_src comp="112" pin="3"/><net_sink comp="78" pin=0"/></net>

<net id="126"><net_src comp="6" pin="0"/><net_sink comp="121" pin=0"/></net>

<net id="127"><net_src comp="32" pin="0"/><net_sink comp="121" pin=1"/></net>

<net id="128"><net_src comp="91" pin="3"/><net_sink comp="91" pin=1"/></net>

<net id="129"><net_src comp="121" pin="3"/><net_sink comp="91" pin=0"/></net>

<net id="133"><net_src comp="32" pin="0"/><net_sink comp="130" pin=0"/></net>

<net id="140"><net_src comp="130" pin="1"/><net_sink comp="134" pin=0"/></net>

<net id="141"><net_src comp="134" pin="4"/><net_sink comp="130" pin=0"/></net>

<net id="145"><net_src comp="32" pin="0"/><net_sink comp="142" pin=0"/></net>

<net id="152"><net_src comp="142" pin="1"/><net_sink comp="146" pin=0"/></net>

<net id="153"><net_src comp="146" pin="4"/><net_sink comp="142" pin=0"/></net>

<net id="157"><net_src comp="34" pin="0"/><net_sink comp="154" pin=0"/></net>

<net id="164"><net_src comp="154" pin="1"/><net_sink comp="158" pin=0"/></net>

<net id="169"><net_src comp="158" pin="4"/><net_sink comp="165" pin=0"/></net>

<net id="170"><net_src comp="36" pin="0"/><net_sink comp="165" pin=1"/></net>

<net id="175"><net_src comp="158" pin="4"/><net_sink comp="171" pin=0"/></net>

<net id="176"><net_src comp="42" pin="0"/><net_sink comp="171" pin=1"/></net>

<net id="180"><net_src comp="171" pin="2"/><net_sink comp="177" pin=0"/></net>

<net id="181"><net_src comp="177" pin="1"/><net_sink comp="71" pin=2"/></net>

<net id="182"><net_src comp="177" pin="1"/><net_sink comp="84" pin=2"/></net>

<net id="186"><net_src comp="158" pin="4"/><net_sink comp="183" pin=0"/></net>

<net id="187"><net_src comp="183" pin="1"/><net_sink comp="97" pin=2"/></net>

<net id="195"><net_src comp="188" pin="1"/><net_sink comp="191" pin=0"/></net>

<net id="196"><net_src comp="48" pin="0"/><net_sink comp="191" pin=1"/></net>

<net id="201"><net_src comp="191" pin="2"/><net_sink comp="197" pin=0"/></net>

<net id="202"><net_src comp="134" pin="4"/><net_sink comp="197" pin=1"/></net>

<net id="210"><net_src comp="203" pin="1"/><net_sink comp="206" pin=0"/></net>

<net id="211"><net_src comp="48" pin="0"/><net_sink comp="206" pin=1"/></net>

<net id="216"><net_src comp="206" pin="2"/><net_sink comp="212" pin=0"/></net>

<net id="217"><net_src comp="146" pin="4"/><net_sink comp="212" pin=1"/></net>

<net id="224"><net_src comp="50" pin="0"/><net_sink comp="218" pin=0"/></net>

<net id="225"><net_src comp="197" pin="2"/><net_sink comp="218" pin=1"/></net>

<net id="226"><net_src comp="52" pin="0"/><net_sink comp="218" pin=2"/></net>

<net id="227"><net_src comp="54" pin="0"/><net_sink comp="218" pin=3"/></net>

<net id="231"><net_src comp="218" pin="4"/><net_sink comp="228" pin=0"/></net>

<net id="232"><net_src comp="228" pin="1"/><net_sink comp="64" pin=2"/></net>

<net id="239"><net_src comp="50" pin="0"/><net_sink comp="233" pin=0"/></net>

<net id="240"><net_src comp="212" pin="2"/><net_sink comp="233" pin=1"/></net>

<net id="241"><net_src comp="52" pin="0"/><net_sink comp="233" pin=2"/></net>

<net id="242"><net_src comp="54" pin="0"/><net_sink comp="233" pin=3"/></net>

<net id="246"><net_src comp="78" pin="3"/><net_sink comp="243" pin=0"/></net>

<net id="250"><net_src comp="104" pin="3"/><net_sink comp="247" pin=0"/></net>

<net id="255"><net_src comp="247" pin="1"/><net_sink comp="251" pin=0"/></net>

<net id="256"><net_src comp="243" pin="1"/><net_sink comp="251" pin=1"/></net>

<net id="261"><net_src comp="251" pin="2"/><net_sink comp="257" pin=0"/></net>

<net id="262"><net_src comp="130" pin="1"/><net_sink comp="257" pin=1"/></net>

<net id="266"><net_src comp="91" pin="3"/><net_sink comp="263" pin=0"/></net>

<net id="271"><net_src comp="247" pin="1"/><net_sink comp="267" pin=0"/></net>

<net id="272"><net_src comp="263" pin="1"/><net_sink comp="267" pin=1"/></net>

<net id="277"><net_src comp="267" pin="2"/><net_sink comp="273" pin=0"/></net>

<net id="278"><net_src comp="142" pin="1"/><net_sink comp="273" pin=1"/></net>

<net id="282"><net_src comp="279" pin="1"/><net_sink comp="64" pin=2"/></net>

<net id="286"><net_src comp="58" pin="2"/><net_sink comp="283" pin=0"/></net>

<net id="287"><net_src comp="283" pin="1"/><net_sink comp="78" pin=1"/></net>

<net id="288"><net_src comp="283" pin="1"/><net_sink comp="188" pin=0"/></net>

<net id="292"><net_src comp="58" pin="2"/><net_sink comp="289" pin=0"/></net>

<net id="293"><net_src comp="289" pin="1"/><net_sink comp="91" pin=1"/></net>

<net id="294"><net_src comp="289" pin="1"/><net_sink comp="203" pin=0"/></net>

<net id="301"><net_src comp="171" pin="2"/><net_sink comp="298" pin=0"/></net>

<net id="302"><net_src comp="298" pin="1"/><net_sink comp="158" pin=2"/></net>

<net id="306"><net_src comp="71" pin="3"/><net_sink comp="303" pin=0"/></net>

<net id="307"><net_src comp="303" pin="1"/><net_sink comp="78" pin=0"/></net>

<net id="311"><net_src comp="84" pin="3"/><net_sink comp="308" pin=0"/></net>

<net id="312"><net_src comp="308" pin="1"/><net_sink comp="91" pin=0"/></net>

<net id="316"><net_src comp="183" pin="1"/><net_sink comp="313" pin=0"/></net>

<net id="317"><net_src comp="313" pin="1"/><net_sink comp="112" pin=2"/></net>

<net id="318"><net_src comp="313" pin="1"/><net_sink comp="121" pin=2"/></net>

<net id="322"><net_src comp="97" pin="3"/><net_sink comp="319" pin=0"/></net>

<net id="323"><net_src comp="319" pin="1"/><net_sink comp="104" pin=0"/></net>

<net id="327"><net_src comp="228" pin="1"/><net_sink comp="324" pin=0"/></net>

<net id="328"><net_src comp="324" pin="1"/><net_sink comp="64" pin=2"/></net>

<net id="332"><net_src comp="233" pin="4"/><net_sink comp="329" pin=0"/></net>

<net id="333"><net_src comp="329" pin="1"/><net_sink comp="279" pin=0"/></net>

<net id="337"><net_src comp="257" pin="2"/><net_sink comp="334" pin=0"/></net>

<net id="338"><net_src comp="334" pin="1"/><net_sink comp="134" pin=2"/></net>

<net id="342"><net_src comp="273" pin="2"/><net_sink comp="339" pin=0"/></net>

<net id="343"><net_src comp="339" pin="1"/><net_sink comp="146" pin=2"/></net>

<net id="347"><net_src comp="279" pin="1"/><net_sink comp="344" pin=0"/></net>

<net id="348"><net_src comp="344" pin="1"/><net_sink comp="64" pin=2"/></net>

</net_list>

</model> 
---------------- Datapath Model END ------------------

* FSMD analyzer results:
  - Output states:
	Port: y | {5 6 }
	Port: shift_reg0 | {3 4 }
	Port: shift_reg1 | {3 4 }
 - Input state : 
	Port: fir : x | {1 2 }
	Port: fir : shift_reg0 | {3 4 }
	Port: fir : shift_reg1 | {3 4 }
	Port: fir : coeffs | {3 4 }
  - Chain level:
	State 1
	State 2
	State 3
		icmp_ln66 : 1
		br_ln66 : 2
		i : 1
		zext_ln67 : 2
		shift_reg0_addr : 3
		data0 : 4
		shift_reg1_addr : 3
		data1 : 4
		zext_ln70 : 1
		coeffs_addr : 2
		coeffs_load : 3
		mul_ln80 : 1
		acc0_1 : 2
		mul_ln81 : 1
		acc1_1 : 2
		trunc_ln : 3
		sext_ln83 : 4
		write_ln83 : 5
		trunc_ln1 : 3
	State 4
		store_ln70 : 1
		store_ln71 : 1
		sext_ln73 : 1
		zext_ln73 : 1
		mul_ln73 : 2
		acc0 : 3
		sext_ln74 : 1
		mul_ln74 : 2
		acc1 : 3
	State 5
		write_ln84 : 1
	State 6


============================================================
+ Verbose Summary: Datapath Resource usage 
============================================================

* Functional unit list:
|----------|------------------|---------|---------|---------|
| Operation|  Functional Unit |  DSP48E |    FF   |   LUT   |
|----------|------------------|---------|---------|---------|
|          |     i_fu_171     |    0    |    0    |    15   |
|          |   acc0_1_fu_197  |    0    |    0    |    71   |
|    add   |   acc1_1_fu_212  |    0    |    0    |    71   |
|          |    acc0_fu_257   |    0    |    0    |    71   |
|          |    acc1_fu_273   |    0    |    0    |    71   |
|----------|------------------|---------|---------|---------|
|          |  mul_ln80_fu_191 |    4    |    0    |    28   |
|    mul   |  mul_ln81_fu_206 |    4    |    0    |    28   |
|          |  mul_ln73_fu_251 |    4    |    0    |    27   |
|          |  mul_ln74_fu_267 |    4    |    0    |    27   |
|----------|------------------|---------|---------|---------|
|   icmp   | icmp_ln66_fu_165 |    0    |    0    |    11   |
|----------|------------------|---------|---------|---------|
|   read   |  grp_read_fu_58  |    0    |    0    |    0    |
|----------|------------------|---------|---------|---------|
|   write  |  grp_write_fu_64 |    0    |    0    |    0    |
|----------|------------------|---------|---------|---------|
|          | zext_ln67_fu_177 |    0    |    0    |    0    |
|   zext   | zext_ln70_fu_183 |    0    |    0    |    0    |
|          | zext_ln73_fu_247 |    0    |    0    |    0    |
|----------|------------------|---------|---------|---------|
|          | sext_ln80_fu_188 |    0    |    0    |    0    |
|          | sext_ln81_fu_203 |    0    |    0    |    0    |
|   sext   | sext_ln83_fu_228 |    0    |    0    |    0    |
|          | sext_ln73_fu_243 |    0    |    0    |    0    |
|          | sext_ln74_fu_263 |    0    |    0    |    0    |
|          | sext_ln84_fu_279 |    0    |    0    |    0    |
|----------|------------------|---------|---------|---------|
|partselect|  trunc_ln_fu_218 |    0    |    0    |    0    |
|          | trunc_ln1_fu_233 |    0    |    0    |    0    |
|----------|------------------|---------|---------|---------|
|   Total  |                  |    16   |    0    |   420   |
|----------|------------------|---------|---------|---------|

Memories:
+----------+--------+--------+--------+--------+
|          |  BRAM  |   FF   |   LUT  |  URAM  |
+----------+--------+--------+--------+--------+
|  coeffs  |    2   |    0   |    0   |    -   |
|shift_reg0|    0   |   64   |   16   |    0   |
|shift_reg1|    0   |   64   |   16   |    0   |
+----------+--------+--------+--------+--------+
|   Total  |    2   |   128  |   32   |    0   |
+----------+--------+--------+--------+--------+

* Register list:
+-----------------------+--------+
|                       |   FF   |
+-----------------------+--------+
|     acc0_0_reg_130    |   64   |
|      acc0_reg_334     |   64   |
|     acc1_0_reg_142    |   64   |
|      acc1_reg_339     |   64   |
|  coeffs_addr_reg_319  |    5   |
|      i_0_reg_154      |    5   |
|       i_reg_298       |    5   |
|   sext_ln83_reg_324   |   32   |
|   sext_ln84_reg_344   |   32   |
|shift_reg0_addr_reg_303|    5   |
|shift_reg1_addr_reg_308|    5   |
|   trunc_ln1_reg_329   |   24   |
|       x0_reg_283      |   32   |
|       x1_reg_289      |   32   |
|   zext_ln70_reg_313   |   64   |
+-----------------------+--------+
|         Total         |   497  |
+-----------------------+--------+

* Multiplexer (MUX) list: 
|-------------------|------|------|------|--------||---------||---------|
|        Comp       |  Pin | Size |  BW  | S x BW ||  Delay  ||   LUT   |
|-------------------|------|------|------|--------||---------||---------|
|  grp_write_fu_64  |  p2  |   4  |  24  |   96   ||    21   |
|  grp_access_fu_78 |  p0  |   4  |   5  |   20   ||    21   |
|  grp_access_fu_78 |  p1  |   2  |  32  |   64   ||    9    |
|  grp_access_fu_91 |  p0  |   4  |   5  |   20   ||    21   |
|  grp_access_fu_91 |  p1  |   2  |  32  |   64   ||    9    |
| grp_access_fu_104 |  p0  |   2  |   5  |   10   ||    9    |
|   acc0_0_reg_130  |  p0  |   2  |  64  |   128  ||    9    |
|   acc1_0_reg_142  |  p0  |   2  |  64  |   128  ||    9    |
|-------------------|------|------|------|--------||---------||---------|
|       Total       |      |      |      |   530  || 14.4265 ||   108   |
|-------------------|------|------|------|--------||---------||---------|



* Summary:
+-----------+--------+--------+--------+--------+--------+--------+
|           |  BRAM  | DSP48E |  Delay |   FF   |   LUT  |  URAM  |
+-----------+--------+--------+--------+--------+--------+--------+
|  Function |    -   |   16   |    -   |    0   |   420  |    -   |
|   Memory  |    2   |    -   |    -   |   128  |   32   |    0   |
|Multiplexer|    -   |    -   |   14   |    -   |   108  |    -   |
|  Register |    -   |    -   |    -   |   497  |    -   |    -   |
+-----------+--------+--------+--------+--------+--------+--------+
|   Total   |    2   |   16   |   14   |   625  |   560  |    0   |
+-----------+--------+--------+--------+--------+--------+--------+
