

================================================================
== Vivado HLS Report for 'fir'
================================================================
* Date:           Tue Jan 19 10:51:58 2021

* Version:        2020.1 (Build 2897737 on Wed May 27 20:21:37 MDT 2020)
* Project:        z7fir
* Solution:       z7fir
* Product family: zynq
* Target device:  xc7z020-clg400-1


================================================================
== Performance Estimates
================================================================
+ Timing: 
    * Summary: 
    +--------+----------+-----------+------------+
    |  Clock |  Target  | Estimated | Uncertainty|
    +--------+----------+-----------+------------+
    |ap_clk  | 20.00 ns | 15.464 ns |   2.50 ns  |
    +--------+----------+-----------+------------+

+ Latency: 
    * Summary: 
    +---------+---------+----------+----------+-----+-----+---------+
    |  Latency (cycles) |  Latency (absolute) |  Interval | Pipeline|
    |   min   |   max   |    min   |    max   | min | max |   Type  |
    +---------+---------+----------+----------+-----+-----+---------+
    |       64|       64| 1.280 us | 1.280 us |   64|   64|   none  |
    +---------+---------+----------+----------+-----+-----+---------+

    + Detail: 
        * Instance: 
        N/A

        * Loop: 
        +----------+---------+---------+----------+-----------+-----------+------+----------+
        |          |  Latency (cycles) | Iteration|  Initiation Interval  | Trip |          |
        | Loop Name|   min   |   max   |  Latency |  achieved |   target  | Count| Pipelined|
        +----------+---------+---------+----------+-----------+-----------+------+----------+
        |- Loop 1  |       60|       60|         2|          -|          -|    30|    no    |
        +----------+---------+---------+----------+-----------+-----------+------+----------+



================================================================
== Utilization Estimates
================================================================
* Summary: 
+-----------------+---------+-------+--------+-------+-----+
|       Name      | BRAM_18K| DSP48E|   FF   |  LUT  | URAM|
+-----------------+---------+-------+--------+-------+-----+
|DSP              |        -|      -|       -|      -|    -|
|Expression       |        -|     16|       0|    420|    -|
|FIFO             |        -|      -|       -|      -|    -|
|Instance         |        -|      -|       -|      -|    -|
|Memory           |        2|      -|     128|     32|    0|
|Multiplexer      |        -|      -|       -|    170|    -|
|Register         |        -|      -|     237|      -|    -|
+-----------------+---------+-------+--------+-------+-----+
|Total            |        2|     16|     365|    622|    0|
+-----------------+---------+-------+--------+-------+-----+
|Available        |      280|    220|  106400|  53200|    0|
+-----------------+---------+-------+--------+-------+-----+
|Utilization (%)  |    ~0   |      7|   ~0   |      1|    0|
+-----------------+---------+-------+--------+-------+-----+

+ Detail: 
    * Instance: 
    N/A

    * DSP48E: 
    N/A

    * Memory: 
    +--------------+----------------+---------+----+----+-----+------+-----+------+-------------+
    |    Memory    |     Module     | BRAM_18K| FF | LUT| URAM| Words| Bits| Banks| W*Bits*Banks|
    +--------------+----------------+---------+----+----+-----+------+-----+------+-------------+
    |coeffs_U      |fir_coeffs      |        2|   0|   0|    0|    31|   38|     1|         1178|
    |shift_reg0_U  |fir_shift_reg0  |        0|  64|  16|    0|    31|   32|     1|          992|
    |shift_reg1_U  |fir_shift_reg0  |        0|  64|  16|    0|    31|   32|     1|          992|
    +--------------+----------------+---------+----+----+-----+------+-----+------+-------------+
    |Total         |                |        2| 128|  32|    0|    93|  102|     3|         3162|
    +--------------+----------------+---------+----+----+-----+------+-----+------+-------------+

    * FIFO: 
    N/A

    * Expression: 
    +---------------------+----------+-------+---+----+------------+------------+
    |    Variable Name    | Operation| DSP48E| FF| LUT| Bitwidth P0| Bitwidth P1|
    +---------------------+----------+-------+---+----+------------+------------+
    |mul_ln73_fu_251_p2   |     *    |      4|  0|  27|          38|          32|
    |mul_ln74_fu_267_p2   |     *    |      4|  0|  27|          38|          32|
    |mul_ln80_fu_191_p2   |     *    |      4|  0|  27|          32|          38|
    |mul_ln81_fu_206_p2   |     *    |      4|  0|  27|          32|          38|
    |acc0_1_fu_197_p2     |     +    |      0|  0|  71|          64|          64|
    |acc0_fu_257_p2       |     +    |      0|  0|  71|          64|          64|
    |acc1_1_fu_212_p2     |     +    |      0|  0|  71|          64|          64|
    |acc1_fu_273_p2       |     +    |      0|  0|  71|          64|          64|
    |i_fu_171_p2          |     +    |      0|  0|  15|           5|           2|
    |ap_block_state3_io   |    and   |      0|  0|   2|           1|           1|
    |icmp_ln66_fu_165_p2  |   icmp   |      0|  0|  11|           5|           1|
    +---------------------+----------+-------+---+----+------------+------------+
    |Total                |          |     16|  0| 420|         407|         400|
    +---------------------+----------+-------+---+----+------------+------------+

    * Multiplexer: 
    +---------------------+----+-----------+-----+-----------+
    |         Name        | LUT| Input Size| Bits| Total Bits|
    +---------------------+----+-----------+-----+-----------+
    |acc0_0_reg_130       |   9|          2|   64|        128|
    |acc1_0_reg_142       |   9|          2|   64|        128|
    |ap_NS_fsm            |  38|          7|    1|          7|
    |i_0_reg_154          |   9|          2|    5|         10|
    |shift_reg0_address0  |  21|          4|    5|         20|
    |shift_reg0_d0        |  15|          3|   32|         96|
    |shift_reg1_address0  |  21|          4|    5|         20|
    |shift_reg1_d0        |  15|          3|   32|         96|
    |x_TDATA_blk_n        |   9|          2|    1|          2|
    |y_TDATA_blk_n        |   9|          2|    1|          2|
    |y_TDATA_int          |  15|          3|   32|         96|
    +---------------------+----+-----------+-----+-----------+
    |Total                | 170|         34|  242|        605|
    +---------------------+----+-----------+-----+-----------+

    * Register: 
    +-------------------+----+----+-----+-----------+
    |        Name       | FF | LUT| Bits| Const Bits|
    +-------------------+----+----+-----+-----------+
    |acc0_0_reg_130     |  64|   0|   64|          0|
    |acc1_0_reg_142     |  64|   0|   64|          0|
    |ap_CS_fsm          |   6|   0|    6|          0|
    |i_0_reg_154        |   5|   0|    5|          0|
    |i_reg_298          |   5|   0|    5|          0|
    |trunc_ln1_reg_329  |  24|   0|   24|          0|
    |x0_reg_283         |  32|   0|   32|          0|
    |x1_reg_289         |  32|   0|   32|          0|
    |zext_ln70_reg_313  |   5|   0|   64|         59|
    +-------------------+----+----+-----+-----------+
    |Total              | 237|   0|  296|         59|
    +-------------------+----+----+-----+-----------+



================================================================
== Interface
================================================================
* Summary: 
+----------+-----+-----+--------------+--------------+--------------+
| RTL Ports| Dir | Bits|   Protocol   | Source Object|    C Type    |
+----------+-----+-----+--------------+--------------+--------------+
|ap_clk    |  in |    1| ap_ctrl_none |      fir     | return value |
|ap_rst_n  |  in |    1| ap_ctrl_none |      fir     | return value |
|y_TDATA   | out |   32|     axis     |       y      |    pointer   |
|y_TVALID  | out |    1|     axis     |       y      |    pointer   |
|y_TREADY  |  in |    1|     axis     |       y      |    pointer   |
|x_TDATA   |  in |   32|     axis     |       x      |    pointer   |
|x_TVALID  |  in |    1|     axis     |       x      |    pointer   |
|x_TREADY  | out |    1|     axis     |       x      |    pointer   |
+----------+-----+-----+--------------+--------------+--------------+

